fpga/test.vcd
$date
   Fri May 23 11:21:25 2014
$end
$version
  P.20131013
$end
$timescale
  1ps
$end
$scope module testme $end
$scope module glitchcraft_inst $end
$var wire 1 W! SYSCLK_P $end
$var wire 1 X! SYSCLK_N $end
$var wire 1 # go $end
$var wire 1 \! enable $end
$var wire 1 Z! t_data $end
$var wire 1 [! t_clk $end
$var wire 1 ' led3 $end
$var wire 1 ( configdata [128] $end
$var wire 1 ) configdata [127] $end
$var wire 1 * configdata [126] $end
$var wire 1 + configdata [125] $end
$var wire 1 , configdata [124] $end
$var wire 1 - configdata [123] $end
$var wire 1 . configdata [122] $end
$var wire 1 / configdata [121] $end
$var wire 1 0 configdata [120] $end
$var wire 1 1 configdata [119] $end
$var wire 1 2 configdata [118] $end
$var wire 1 3 configdata [117] $end
$var wire 1 4 configdata [116] $end
$var wire 1 5 configdata [115] $end
$var wire 1 6 configdata [114] $end
$var wire 1 7 configdata [113] $end
$var wire 1 8 configdata [112] $end
$var wire 1 9 configdata [111] $end
$var wire 1 : configdata [110] $end
$var wire 1 ; configdata [109] $end
$var wire 1 < configdata [108] $end
$var wire 1 = configdata [107] $end
$var wire 1 > configdata [106] $end
$var wire 1 ? configdata [105] $end
$var wire 1 @ configdata [104] $end
$var wire 1 A configdata [103] $end
$var wire 1 B configdata [102] $end
$var wire 1 C configdata [101] $end
$var wire 1 D configdata [100] $end
$var wire 1 E configdata [99] $end
$var wire 1 F configdata [98] $end
$var wire 1 G configdata [97] $end
$var wire 1 H configdata [96] $end
$var wire 1 I configdata [95] $end
$var wire 1 J configdata [94] $end
$var wire 1 K configdata [93] $end
$var wire 1 L configdata [92] $end
$var wire 1 M configdata [91] $end
$var wire 1 N configdata [90] $end
$var wire 1 O configdata [89] $end
$var wire 1 P configdata [88] $end
$var wire 1 Q configdata [87] $end
$var wire 1 R configdata [86] $end
$var wire 1 S configdata [85] $end
$var wire 1 T configdata [84] $end
$var wire 1 U configdata [83] $end
$var wire 1 V configdata [82] $end
$var wire 1 W configdata [81] $end
$var wire 1 X configdata [80] $end
$var wire 1 Y configdata [79] $end
$var wire 1 Z configdata [78] $end
$var wire 1 [ configdata [77] $end
$var wire 1 \ configdata [76] $end
$var wire 1 ] configdata [75] $end
$var wire 1 ^ configdata [74] $end
$var wire 1 _ configdata [73] $end
$var wire 1 ` configdata [72] $end
$var wire 1 a configdata [71] $end
$var wire 1 b configdata [70] $end
$var wire 1 c configdata [69] $end
$var wire 1 d configdata [68] $end
$var wire 1 e configdata [67] $end
$var wire 1 f configdata [66] $end
$var wire 1 g configdata [65] $end
$var wire 1 h configdata [64] $end
$var wire 1 i configdata [63] $end
$var wire 1 j configdata [62] $end
$var wire 1 k configdata [61] $end
$var wire 1 l configdata [60] $end
$var wire 1 m configdata [59] $end
$var wire 1 n configdata [58] $end
$var wire 1 o configdata [57] $end
$var wire 1 p configdata [56] $end
$var wire 1 q configdata [55] $end
$var wire 1 r configdata [54] $end
$var wire 1 s configdata [53] $end
$var wire 1 t configdata [52] $end
$var wire 1 u configdata [51] $end
$var wire 1 v configdata [50] $end
$var wire 1 w configdata [49] $end
$var wire 1 x configdata [48] $end
$var wire 1 y configdata [47] $end
$var wire 1 z configdata [46] $end
$var wire 1 { configdata [45] $end
$var wire 1 | configdata [44] $end
$var wire 1 } configdata [43] $end
$var wire 1 ~ configdata [42] $end
$var wire 1 !! configdata [41] $end
$var wire 1 "! configdata [40] $end
$var wire 1 #! configdata [39] $end
$var wire 1 $! configdata [38] $end
$var wire 1 %! configdata [37] $end
$var wire 1 &! configdata [36] $end
$var wire 1 '! configdata [35] $end
$var wire 1 (! configdata [34] $end
$var wire 1 )! configdata [33] $end
$var wire 1 *! configdata [32] $end
$var wire 1 +! configdata [31] $end
$var wire 1 ,! configdata [30] $end
$var wire 1 -! configdata [29] $end
$var wire 1 .! configdata [28] $end
$var wire 1 /! configdata [27] $end
$var wire 1 0! configdata [26] $end
$var wire 1 1! configdata [25] $end
$var wire 1 2! configdata [24] $end
$var wire 1 3! configdata [23] $end
$var wire 1 4! configdata [22] $end
$var wire 1 5! configdata [21] $end
$var wire 1 6! configdata [20] $end
$var wire 1 7! configdata [19] $end
$var wire 1 8! configdata [18] $end
$var wire 1 9! configdata [17] $end
$var wire 1 :! configdata [16] $end
$var wire 1 ;! configdata [15] $end
$var wire 1 <! configdata [14] $end
$var wire 1 =! configdata [13] $end
$var wire 1 >! configdata [12] $end
$var wire 1 ?! configdata [11] $end
$var wire 1 @! configdata [10] $end
$var wire 1 A! configdata [9] $end
$var wire 1 B! configdata [8] $end
$var wire 1 C! configdata [7] $end
$var wire 1 D! configdata [6] $end
$var wire 1 E! configdata [5] $end
$var wire 1 F! configdata [4] $end
$var wire 1 G! configdata [3] $end
$var wire 1 H! configdata [2] $end
$var wire 1 I! configdata [1] $end
$var wire 1 J! configdata [0] $end
$var wire 1 V! CLK200M $end
$var wire 1 L! ready $end
$var reg 1 M! armed $end
$var reg 1 N! done $end
$var reg 1 O! glitch $end
$var reg 1 P! targetreset $end
$var reg 1 Q! led2 $end
$var reg 64 R! holdoff_ctr [63:0] $end
$var reg 64 S! hold_ctr [63:0] $end
$var reg 2 T! state [1:0] $end
$var reg 1 U! polarity $end
$scope module IBUFGDS_inst $end
$var wire 1 V! O $end
$var wire 1 W! I $end
$var wire 1 X! IB $end
$var reg 1 Y! o_out $end
$upscope $end
$scope module data_in $end
$var wire 1 Z! t_data $end
$var wire 1 [! t_clk $end
$var wire 1 \! enable $end
$var reg 129 ]! reg_in_data [128:0] $end
$var reg 1 ^! ready $end
$var reg 1 _! led3 $end
$var reg 8 `! bit_cntr [7:0] $end
$upscope $end
$upscope $end
$upscope $end
$enddefinitions $end
#0
$dumpvars
xI!
xH!
xG!
xF!
xE!
xD!
xC!
x;!
x@!
x9!
x5!
x4!
x>!
x8!
xA!
xB!
x7!
x6!
x<!
x3!
x2!
x?!
x:!
x=!
0'
0M!
0N!
0O!
0P!
0Q!
bx R!
bx S!
b0 T!
0U!
xJ!
x#!
xu
x|
xs
xv
x+!
xy
x{
xr
xx
x)!
x,!
x*!
xp
xq
xo
x1!
xn
xm
x0!
x&!
xt
x(!
x"!
xl
x.!
x~
x}
x$!
xz
x'!
x!!
xw
x/!
x-!
x%!
xY
xh
xg
x`
x^
x]
xS
xi
xd
xa
xQ
xW
xO
xN
xL
xM
xU
xX
xV
x_
x\
xP
xK
xJ
xI
xZ
xj
xH
xT
xR
xf
xk
xe
xc
x[
xb
x1
xD
x:
x6
x5
x3
x>
x7
x0
x@
x-
x,
x+
x*
xA
x)
x(
xL!
x2
x/
x=
x.
0V!
x?
x;
x8
xE
xC
xG
xB
x<
x9
xF
x4
0Y!
bx ]!
x^!
0_!
bx `!
0W!
0#
0\!
0[!
0Z!
1X!
$end
#1000
1'
1Q!
0L!
1V!
1Y!
0^!
1_!
b0 `!
1W!
1[!
0X!
#2000
0V!
0Y!
0W!
0[!
1X!
#3000
1V!
1Y!
1W!
1[!
0X!
#4000
0V!
0Y!
0W!
1\!
0[!
1X!
#5000
0J!
1V!
1Y!
bx0 ]!
b1 `!
1W!
1[!
0X!
#6000
0V!
0Y!
0W!
0[!
1X!
#7000
0I!
1V!
1Y!
bx00 ]!
b10 `!
1W!
1[!
0X!
#8000
0V!
0Y!
0W!
0[!
1X!
#9000
0H!
1V!
1Y!
bx000 ]!
b11 `!
1W!
1[!
0X!
#10000
0V!
0Y!
0W!
0[!
1X!
#11000
0G!
1V!
1Y!
bx0000 ]!
b100 `!
1W!
1[!
0X!
#12000
0V!
0Y!
0W!
0[!
1X!
#13000
0F!
1V!
1Y!
bx00000 ]!
b101 `!
1W!
1[!
0X!
#14000
0V!
0Y!
0W!
0[!
1X!
#15000
0E!
1V!
1Y!
bx000000 ]!
b110 `!
1W!
1[!
0X!
#16000
0V!
0Y!
0W!
0[!
1X!
#17000
0D!
1V!
1Y!
bx0000000 ]!
b111 `!
1W!
1[!
0X!
#18000
0V!
0Y!
0W!
0[!
1X!
#19000
0C!
1V!
1Y!
bx00000000 ]!
b1000 `!
1W!
1[!
0X!
#20000
0V!
0Y!
0W!
0[!
1X!
#21000
0B!
1V!
1Y!
bx000000000 ]!
b1001 `!
1W!
1[!
0X!
#22000
0V!
0Y!
0W!
0[!
1X!
#23000
0A!
1V!
1Y!
bx0000000000 ]!
b1010 `!
1W!
1[!
0X!
#24000
0V!
0Y!
0W!
0[!
1X!
#25000
0@!
1V!
1Y!
bx00000000000 ]!
b1011 `!
1W!
1[!
0X!
#26000
0V!
0Y!
0W!
0[!
1X!
#27000
0?!
1V!
1Y!
bx000000000000 ]!
b1100 `!
1W!
1[!
0X!
#28000
0V!
0Y!
0W!
0[!
1X!
#29000
0>!
1V!
1Y!
bx0000000000000 ]!
b1101 `!
1W!
1[!
0X!
#30000
0V!
0Y!
0W!
0[!
1X!
#31000
0=!
1V!
1Y!
bx00000000000000 ]!
b1110 `!
1W!
1[!
0X!
#32000
0V!
0Y!
0W!
0[!
1X!
#33000
0<!
1V!
1Y!
bx000000000000000 ]!
b1111 `!
1W!
1[!
0X!
#34000
0V!
0Y!
0W!
0[!
1X!
#35000
0;!
1V!
1Y!
bx0000000000000000 ]!
b10000 `!
1W!
1[!
0X!
#36000
0V!
0Y!
0W!
0[!
1X!
#37000
0:!
1V!
1Y!
bx00000000000000000 ]!
b10001 `!
1W!
1[!
0X!
#38000
0V!
0Y!
0W!
0[!
1X!
#39000
09!
1V!
1Y!
bx000000000000000000 ]!
b10010 `!
1W!
1[!
0X!
#40000
0V!
0Y!
0W!
0[!
1X!
#41000
08!
1V!
1Y!
bx0000000000000000000 ]!
b10011 `!
1W!
1[!
0X!
#42000
0V!
0Y!
0W!
0[!
1X!
#43000
07!
1V!
1Y!
bx00000000000000000000 ]!
b10100 `!
1W!
1[!
0X!
#44000
0V!
0Y!
0W!
0[!
1X!
#45000
06!
1V!
1Y!
bx000000000000000000000 ]!
b10101 `!
1W!
1[!
0X!
#46000
0V!
0Y!
0W!
0[!
1X!
#47000
05!
1V!
1Y!
bx0000000000000000000000 ]!
b10110 `!
1W!
1[!
0X!
#48000
0V!
0Y!
0W!
0[!
1X!
#49000
04!
1V!
1Y!
bx00000000000000000000000 ]!
b10111 `!
1W!
1[!
0X!
#50000
0V!
0Y!
0W!
0[!
1X!
#51000
03!
1V!
1Y!
bx000000000000000000000000 ]!
b11000 `!
1W!
1[!
0X!
#52000
0V!
0Y!
0W!
0[!
1X!
#53000
02!
1V!
1Y!
bx0000000000000000000000000 ]!
b11001 `!
1W!
1[!
0X!
#54000
0V!
0Y!
0W!
0[!
1X!
#55000
01!
1V!
1Y!
bx00000000000000000000000000 ]!
b11010 `!
1W!
1[!
0X!
#56000
0V!
0Y!
0W!
0[!
1X!
#57000
00!
1V!
1Y!
bx000000000000000000000000000 ]!
b11011 `!
1W!
1[!
0X!
#58000
0V!
0Y!
0W!
0[!
1X!
#59000
0/!
1V!
1Y!
bx0000000000000000000000000000 ]!
b11100 `!
1W!
1[!
0X!
#60000
0V!
0Y!
0W!
0[!
1X!
#61000
0.!
1V!
1Y!
bx00000000000000000000000000000 ]!
b11101 `!
1W!
1[!
0X!
#62000
0V!
0Y!
0W!
0[!
1X!
#63000
0-!
1V!
1Y!
bx000000000000000000000000000000 ]!
b11110 `!
1W!
1[!
0X!
#64000
0V!
0Y!
0W!
0[!
1X!
#65000
0,!
1V!
1Y!
bx0000000000000000000000000000000 ]!
b11111 `!
1W!
1[!
0X!
#66000
0V!
0Y!
0W!
0[!
1X!
#67000
0+!
1V!
1Y!
bx00000000000000000000000000000000 ]!
b100000 `!
1W!
1[!
0X!
#68000
0V!
0Y!
0W!
0[!
1X!
#69000
0*!
1V!
1Y!
bx000000000000000000000000000000000 ]!
b100001 `!
1W!
1[!
0X!
#70000
0V!
0Y!
0W!
0[!
1X!
#71000
0)!
1V!
1Y!
bx0000000000000000000000000000000000 ]!
b100010 `!
1W!
1[!
0X!
#72000
0V!
0Y!
0W!
0[!
1X!
#73000
0(!
1V!
1Y!
bx00000000000000000000000000000000000 ]!
b100011 `!
1W!
1[!
0X!
#74000
0V!
0Y!
0W!
0[!
1X!
#75000
0'!
1V!
1Y!
bx000000000000000000000000000000000000 ]!
b100100 `!
1W!
1[!
0X!
#76000
0V!
0Y!
0W!
0[!
1X!
#77000
0&!
1V!
1Y!
bx0000000000000000000000000000000000000 ]!
b100101 `!
1W!
1[!
0X!
#78000
0V!
0Y!
0W!
0[!
1X!
#79000
0%!
1V!
1Y!
bx00000000000000000000000000000000000000 ]!
b100110 `!
1W!
1[!
0X!
#80000
0V!
0Y!
0W!
0[!
1X!
#81000
0$!
1V!
1Y!
bx000000000000000000000000000000000000000 ]!
b100111 `!
1W!
1[!
0X!
#82000
0V!
0Y!
0W!
0[!
1X!
#83000
0#!
1V!
1Y!
bx0000000000000000000000000000000000000000 ]!
b101000 `!
1W!
1[!
0X!
#84000
0V!
0Y!
0W!
0[!
1X!
#85000
0"!
1V!
1Y!
bx00000000000000000000000000000000000000000 ]!
b101001 `!
1W!
1[!
0X!
#86000
0V!
0Y!
0W!
0[!
1X!
#87000
0!!
1V!
1Y!
bx000000000000000000000000000000000000000000 ]!
b101010 `!
1W!
1[!
0X!
#88000
0V!
0Y!
0W!
0[!
1X!
#89000
0~
1V!
1Y!
bx0000000000000000000000000000000000000000000 ]!
b101011 `!
1W!
1[!
0X!
#90000
0V!
0Y!
0W!
0[!
1X!
#91000
0}
1V!
1Y!
bx00000000000000000000000000000000000000000000 ]!
b101100 `!
1W!
1[!
0X!
#92000
0V!
0Y!
0W!
0[!
1X!
#93000
0|
1V!
1Y!
bx000000000000000000000000000000000000000000000 ]!
b101101 `!
1W!
1[!
0X!
#94000
0V!
0Y!
0W!
0[!
1X!
#95000
0{
1V!
1Y!
bx0000000000000000000000000000000000000000000000 ]!
b101110 `!
1W!
1[!
0X!
#96000
0V!
0Y!
0W!
0[!
1X!
#97000
0z
1V!
1Y!
bx00000000000000000000000000000000000000000000000 ]!
b101111 `!
1W!
1[!
0X!
#98000
0V!
0Y!
0W!
0[!
1X!
#99000
0y
1V!
1Y!
bx000000000000000000000000000000000000000000000000 ]!
b110000 `!
1W!
1[!
0X!
#100000
0V!
0Y!
0W!
0[!
1X!
#101000
0x
1V!
1Y!
bx0000000000000000000000000000000000000000000000000 ]!
b110001 `!
1W!
1[!
0X!
#102000
0V!
0Y!
0W!
0[!
1X!
#103000
0w
1V!
1Y!
bx00000000000000000000000000000000000000000000000000 ]!
b110010 `!
1W!
1[!
0X!
#104000
0V!
0Y!
0W!
0[!
1X!
#105000
0v
1V!
1Y!
bx000000000000000000000000000000000000000000000000000 ]!
b110011 `!
1W!
1[!
0X!
#106000
0V!
0Y!
0W!
0[!
1X!
#107000
0u
1V!
1Y!
bx0000000000000000000000000000000000000000000000000000 ]!
b110100 `!
1W!
1[!
0X!
#108000
0V!
0Y!
0W!
0[!
1X!
#109000
0t
1V!
1Y!
bx00000000000000000000000000000000000000000000000000000 ]!
b110101 `!
1W!
1[!
0X!
#110000
0V!
0Y!
0W!
0[!
1X!
#111000
0s
1V!
1Y!
bx000000000000000000000000000000000000000000000000000000 ]!
b110110 `!
1W!
1[!
0X!
#112000
0V!
0Y!
0W!
0[!
1X!
#113000
0r
1V!
1Y!
bx0000000000000000000000000000000000000000000000000000000 ]!
b110111 `!
1W!
1[!
0X!
#114000
0V!
0Y!
0W!
0[!
1X!
#115000
0q
1V!
1Y!
bx00000000000000000000000000000000000000000000000000000000 ]!
b111000 `!
1W!
1[!
0X!
#116000
0V!
0Y!
0W!
0[!
1X!
#117000
0p
1V!
1Y!
bx000000000000000000000000000000000000000000000000000000000 ]!
b111001 `!
1W!
1[!
0X!
#118000
0V!
0Y!
0W!
0[!
1X!
#119000
0o
1V!
1Y!
bx0000000000000000000000000000000000000000000000000000000000 ]!
b111010 `!
1W!
1[!
0X!
#120000
0V!
0Y!
0W!
0[!
1X!
#121000
0n
1V!
1Y!
bx00000000000000000000000000000000000000000000000000000000000 ]!
b111011 `!
1W!
1[!
0X!
#122000
0V!
0Y!
0W!
0[!
1X!
#123000
0m
1V!
1Y!
bx000000000000000000000000000000000000000000000000000000000000 ]!
b111100 `!
1W!
1[!
0X!
#124000
0V!
0Y!
0W!
0[!
1X!
#125000
0l
1V!
1Y!
bx0000000000000000000000000000000000000000000000000000000000000 ]!
b111101 `!
1W!
1[!
0X!
#126000
0V!
0Y!
0W!
0[!
1X!
#127000
0k
1V!
1Y!
bx00000000000000000000000000000000000000000000000000000000000000 ]!
b111110 `!
1W!
1[!
0X!
#128000
0V!
0Y!
0W!
0[!
1Z!
1X!
#129000
1J!
0j
1V!
1Y!
bx000000000000000000000000000000000000000000000000000000000000001 ]!
b111111 `!
1W!
1[!
0X!
#130000
0V!
0Y!
0W!
0[!
1X!
#131000
1I!
0i
1V!
1Y!
bx0000000000000000000000000000000000000000000000000000000000000011 ]!
b1000000 `!
1W!
1[!
0X!
#132000
0V!
0Y!
0W!
0[!
0Z!
1X!
#133000
1H!
0J!
0h
1V!
1Y!
bx00000000000000000000000000000000000000000000000000000000000000110 ]!
b1000001 `!
1W!
1[!
0X!
#134000
0V!
0Y!
0W!
0[!
1X!
#135000
0I!
1G!
0g
1V!
1Y!
bx000000000000000000000000000000000000000000000000000000000000001100 ]!
b1000010 `!
1W!
1[!
0X!
#136000
0V!
0Y!
0W!
0[!
1X!
#137000
0H!
1F!
0f
1V!
1Y!
bx0000000000000000000000000000000000000000000000000000000000000011000 ]!
b1000011 `!
1W!
1[!
0X!
#138000
0V!
0Y!
0W!
0[!
1X!
#139000
0G!
1E!
0e
1V!
1Y!
bx00000000000000000000000000000000000000000000000000000000000000110000 ]!
b1000100 `!
1W!
1[!
0X!
#140000
0V!
0Y!
0W!
0[!
1X!
#141000
0F!
1D!
0d
1V!
1Y!
bx000000000000000000000000000000000000000000000000000000000000001100000 ]!
b1000101 `!
1W!
1[!
0X!
#142000
0V!
0Y!
0W!
0[!
1X!
#143000
0E!
1C!
0c
1V!
1Y!
bx0000000000000000000000000000000000000000000000000000000000000011000000 ]!
b1000110 `!
1W!
1[!
0X!
#144000
0V!
0Y!
0W!
0[!
1X!
#145000
0D!
1B!
0b
1V!
1Y!
bx00000000000000000000000000000000000000000000000000000000000000110000000 ]!
b1000111 `!
1W!
1[!
0X!
#146000
0V!
0Y!
0W!
0[!
1X!
#147000
0C!
1A!
0a
1V!
1Y!
bx000000000000000000000000000000000000000000000000000000000000001100000000 ]!
b1001000 `!
1W!
1[!
0X!
#148000
0V!
0Y!
0W!
0[!
1X!
#149000
1@!
0B!
0`
1V!
1Y!
bx0000000000000000000000000000000000000000000000000000000000000011000000000 ]!
b1001001 `!
1W!
1[!
0X!
#150000
0V!
0Y!
0W!
0[!
1X!
#151000
0A!
1?!
0_
1V!
1Y!
bx00000000000000000000000000000000000000000000000000000000000000110000000000 ]!
b1001010 `!
1W!
1[!
0X!
#152000
0V!
0Y!
0W!
0[!
1X!
#153000
0@!
1>!
0^
1V!
1Y!
bx000000000000000000000000000000000000000000000000000000000000001100000000000 ]!
b1001011 `!
1W!
1[!
0X!
#154000
0V!
0Y!
0W!
0[!
1X!
#155000
0?!
1=!
0]
1V!
1Y!
bx0000000000000000000000000000000000000000000000000000000000000011000000000000 ]!
b1001100 `!
1W!
1[!
0X!
#156000
0V!
0Y!
0W!
0[!
1X!
#157000
0>!
1<!
0\
1V!
1Y!
bx00000000000000000000000000000000000000000000000000000000000000110000000000000 ]!
b1001101 `!
1W!
1[!
0X!
#158000
0V!
0Y!
0W!
0[!
1X!
#159000
1;!
0=!
0[
1V!
1Y!
bx000000000000000000000000000000000000000000000000000000000000001100000000000000 ]!
b1001110 `!
1W!
1[!
0X!
#160000
0V!
0Y!
0W!
0[!
1X!
#161000
0<!
1:!
0Z
1V!
1Y!
bx0000000000000000000000000000000000000000000000000000000000000011000000000000000 ]!
b1001111 `!
1W!
1[!
0X!
#162000
0V!
0Y!
0W!
0[!
1X!
#163000
0;!
19!
0Y
1V!
1Y!
bx00000000000000000000000000000000000000000000000000000000000000110000000000000000 ]!
b1010000 `!
1W!
1[!
0X!
#164000
0V!
0Y!
0W!
0[!
1X!
#165000
18!
0:!
0X
1V!
1Y!
bx000000000000000000000000000000000000000000000000000000000000001100000000000000000 ]!
b1010001 `!
1W!
1[!
0X!
#166000
0V!
0Y!
0W!
0[!
1X!
#167000
09!
17!
0W
1V!
1Y!
bx0000000000000000000000000000000000000000000000000000000000000011000000000000000000 ]!
b1010010 `!
1W!
1[!
0X!
#168000
0V!
0Y!
0W!
0[!
1X!
#169000
08!
16!
0V
1V!
1Y!
bx00000000000000000000000000000000000000000000000000000000000000110000000000000000000 ]!
b1010011 `!
1W!
1[!
0X!
#170000
0V!
0Y!
0W!
0[!
1X!
#171000
15!
07!
0U
1V!
1Y!
bx000000000000000000000000000000000000000000000000000000000000001100000000000000000000 ]!
b1010100 `!
1W!
1[!
0X!
#172000
0V!
0Y!
0W!
0[!
1X!
#173000
14!
06!
0T
1V!
1Y!
bx0000000000000000000000000000000000000000000000000000000000000011000000000000000000000 ]!
b1010101 `!
1W!
1[!
0X!
#174000
0V!
0Y!
0W!
0[!
1X!
#175000
05!
13!
0S
1V!
1Y!
bx00000000000000000000000000000000000000000000000000000000000000110000000000000000000000 ]!
b1010110 `!
1W!
1[!
0X!
#176000
0V!
0Y!
0W!
0[!
1X!
#177000
04!
12!
0R
1V!
1Y!
bx000000000000000000000000000000000000000000000000000000000000001100000000000000000000000 ]!
b1010111 `!
1W!
1[!
0X!
#178000
0V!
0Y!
0W!
0[!
1X!
#179000
03!
11!
0Q
1V!
1Y!
bx0000000000000000000000000000000000000000000000000000000000000011000000000000000000000000 ]!
b1011000 `!
1W!
1[!
0X!
#180000
0V!
0Y!
0W!
0[!
1X!
#181000
02!
10!
0P
1V!
1Y!
bx00000000000000000000000000000000000000000000000000000000000000110000000000000000000000000 ]!
b1011001 `!
1W!
1[!
0X!
#182000
0V!
0Y!
0W!
0[!
1X!
#183000
01!
1/!
0O
1V!
1Y!
bx000000000000000000000000000000000000000000000000000000000000001100000000000000000000000000 ]!
b1011010 `!
1W!
1[!
0X!
#184000
0V!
0Y!
0W!
0[!
1X!
#185000
00!
1.!
0N
1V!
1Y!
bx0000000000000000000000000000000000000000000000000000000000000011000000000000000000000000000 ]!
b1011011 `!
1W!
1[!
0X!
#186000
0V!
0Y!
0W!
0[!
1X!
#187000
0/!
1-!
0M
1V!
1Y!
bx00000000000000000000000000000000000000000000000000000000000000110000000000000000000000000000 ]!
b1011100 `!
1W!
1[!
0X!
#188000
0V!
0Y!
0W!
0[!
1X!
#189000
1,!
0.!
0L
1V!
1Y!
bx000000000000000000000000000000000000000000000000000000000000001100000000000000000000000000000 ]!
b1011101 `!
1W!
1[!
0X!
#190000
0V!
0Y!
0W!
0[!
1X!
#191000
1+!
0-!
0K
1V!
1Y!
bx0000000000000000000000000000000000000000000000000000000000000011000000000000000000000000000000 ]!
b1011110 `!
1W!
1[!
0X!
#192000
0V!
0Y!
0W!
0[!
1X!
#193000
0,!
1*!
0J
1V!
1Y!
bx00000000000000000000000000000000000000000000000000000000000000110000000000000000000000000000000 ]!
b1011111 `!
1W!
1[!
0X!
#194000
0V!
0Y!
0W!
0[!
1X!
#195000
0+!
1)!
0I
1V!
1Y!
bx000000000000000000000000000000000000000000000000000000000000001100000000000000000000000000000000 ]!
b1100000 `!
1W!
1[!
0X!
#196000
0V!
0Y!
0W!
0[!
1X!
#197000
0*!
1(!
0H
1V!
1Y!
bx0000000000000000000000000000000000000000000000000000000000000011000000000000000000000000000000000 ]!
b1100001 `!
1W!
1[!
0X!
#198000
0V!
0Y!
0W!
0[!
1X!
#199000
0)!
1'!
1V!
0G
1Y!
bx00000000000000000000000000000000000000000000000000000000000000110000000000000000000000000000000000 ]!
b1100010 `!
1W!
1[!
0X!
#200000
0V!
0Y!
0W!
0[!
1X!
#201000
1&!
0(!
1V!
0F
1Y!
bx000000000000000000000000000000000000000000000000000000000000001100000000000000000000000000000000000 ]!
b1100011 `!
1W!
1[!
0X!
#202000
0V!
0Y!
0W!
0[!
1X!
#203000
0'!
1%!
1V!
0E
1Y!
bx0000000000000000000000000000000000000000000000000000000000000011000000000000000000000000000000000000 ]!
b1100100 `!
1W!
1[!
0X!
#204000
0V!
0Y!
0W!
0[!
1X!
#205000
0&!
1$!
0D
1V!
1Y!
bx00000000000000000000000000000000000000000000000000000000000000110000000000000000000000000000000000000 ]!
b1100101 `!
1W!
1[!
0X!
#206000
0V!
0Y!
0W!
0[!
1X!
#207000
1#!
0%!
1V!
0C
1Y!
bx000000000000000000000000000000000000000000000000000000000000001100000000000000000000000000000000000000 ]!
b1100110 `!
1W!
1[!
0X!
#208000
0V!
0Y!
0W!
0[!
1X!
#209000
1"!
0$!
1V!
0B
1Y!
bx0000000000000000000000000000000000000000000000000000000000000011000000000000000000000000000000000000000 ]!
b1100111 `!
1W!
1[!
0X!
#210000
0V!
0Y!
0W!
0[!
1X!
#211000
0#!
1!!
0A
1V!
1Y!
bx00000000000000000000000000000000000000000000000000000000000000110000000000000000000000000000000000000000 ]!
b1101000 `!
1W!
1[!
0X!
#212000
0V!
0Y!
0W!
0[!
1X!
#213000
0"!
1~
0@
1V!
1Y!
bx000000000000000000000000000000000000000000000000000000000000001100000000000000000000000000000000000000000 ]!
b1101001 `!
1W!
1[!
0X!
#214000
0V!
0Y!
0W!
0[!
1X!
#215000
1}
0!!
1V!
0?
1Y!
bx0000000000000000000000000000000000000000000000000000000000000011000000000000000000000000000000000000000000 ]!
b1101010 `!
1W!
1[!
0X!
#216000
0V!
0Y!
0W!
0[!
1X!
#217000
1|
0~
0>
1V!
1Y!
bx00000000000000000000000000000000000000000000000000000000000000110000000000000000000000000000000000000000000 ]!
b1101011 `!
1W!
1[!
0X!
#218000
0V!
0Y!
0W!
0[!
1X!
#219000
1{
0}
0=
1V!
1Y!
bx000000000000000000000000000000000000000000000000000000000000001100000000000000000000000000000000000000000000 ]!
b1101100 `!
1W!
1[!
0X!
#220000
0V!
0Y!
0W!
0[!
1X!
#221000
0|
1z
1V!
0<
1Y!
bx0000000000000000000000000000000000000000000000000000000000000011000000000000000000000000000000000000000000000 ]!
b1101101 `!
1W!
1[!
0X!
#222000
0V!
0Y!
0W!
0[!
1X!
#223000
1y
0{
1V!
0;
1Y!
bx00000000000000000000000000000000000000000000000000000000000000110000000000000000000000000000000000000000000000 ]!
b1101110 `!
1W!
1[!
0X!
#224000
0V!
0Y!
0W!
0[!
1X!
#225000
1x
0z
0:
1V!
1Y!
bx000000000000000000000000000000000000000000000000000000000000001100000000000000000000000000000000000000000000000 ]!
b1101111 `!
1W!
1[!
0X!
#226000
0V!
0Y!
0W!
0[!
1X!
#227000
0y
1w
1V!
09
1Y!
bx0000000000000000000000000000000000000000000000000000000000000011000000000000000000000000000000000000000000000000 ]!
b1110000 `!
1W!
1[!
0X!
#228000
0V!
0Y!
0W!
0[!
1X!
#229000
1v
0x
1V!
08
1Y!
bx00000000000000000000000000000000000000000000000000000000000000110000000000000000000000000000000000000000000000000 ]!
b1110001 `!
1W!
1[!
0X!
#230000
0V!
0Y!
0W!
0[!
1X!
#231000
1u
0w
07
1V!
1Y!
bx000000000000000000000000000000000000000000000000000000000000001100000000000000000000000000000000000000000000000000 ]!
b1110010 `!
1W!
1[!
0X!
#232000
0V!
0Y!
0W!
0[!
1X!
#233000
0v
1t
06
1V!
1Y!
bx0000000000000000000000000000000000000000000000000000000000000011000000000000000000000000000000000000000000000000000 ]!
b1110011 `!
1W!
1[!
0X!
#234000
0V!
0Y!
0W!
0[!
1X!
#235000
0u
1s
05
1V!
1Y!
bx00000000000000000000000000000000000000000000000000000000000000110000000000000000000000000000000000000000000000000000 ]!
b1110100 `!
1W!
1[!
0X!
#236000
0V!
0Y!
0W!
0[!
1X!
#237000
1r
0t
1V!
04
1Y!
bx000000000000000000000000000000000000000000000000000000000000001100000000000000000000000000000000000000000000000000000 ]!
b1110101 `!
1W!
1[!
0X!
#238000
0V!
0Y!
0W!
0[!
1X!
#239000
0s
1q
03
1V!
1Y!
bx0000000000000000000000000000000000000000000000000000000000000011000000000000000000000000000000000000000000000000000000 ]!
b1110110 `!
1W!
1[!
0X!
#240000
0V!
0Y!
0W!
0[!
1X!
#241000
0r
1p
02
1V!
1Y!
bx00000000000000000000000000000000000000000000000000000000000000110000000000000000000000000000000000000000000000000000000 ]!
b1110111 `!
1W!
1[!
0X!
#242000
0V!
0Y!
0W!
0[!
1X!
#243000
0q
1o
01
1V!
1Y!
bx000000000000000000000000000000000000000000000000000000000000001100000000000000000000000000000000000000000000000000000000 ]!
b1111000 `!
1W!
1[!
0X!
#244000
0V!
0Y!
0W!
0[!
1X!
#245000
0p
1n
00
1V!
1Y!
bx0000000000000000000000000000000000000000000000000000000000000011000000000000000000000000000000000000000000000000000000000 ]!
b1111001 `!
1W!
1[!
0X!
#246000
0V!
0Y!
0W!
0[!
1X!
#247000
0o
1m
0/
1V!
1Y!
bx00000000000000000000000000000000000000000000000000000000000000110000000000000000000000000000000000000000000000000000000000 ]!
b1111010 `!
1W!
1[!
0X!
#248000
0V!
0Y!
0W!
0[!
1X!
#249000
0n
1l
0.
1V!
1Y!
bx000000000000000000000000000000000000000000000000000000000000001100000000000000000000000000000000000000000000000000000000000 ]!
b1111011 `!
1W!
1[!
0X!
#250000
0V!
0Y!
0W!
0[!
1X!
#251000
0m
1k
0-
1V!
1Y!
bx0000000000000000000000000000000000000000000000000000000000000011000000000000000000000000000000000000000000000000000000000000 ]!
b1111100 `!
1W!
1[!
0X!
